"Line","Speaker","Utterance","Tags","Incorrect Tag","Correct Tag","Notes"
"1","*INV:","we are taping at their home .","pro:sub|we v:cop|be&PRES n:gerund|tape-PROG prep|at pro:poss:det|their n|home .","v:cop|be&PRES","aux|be&PRES",
"1","*INV:","we are taping at their home .","pro:sub|we v:cop|be&PRES n:gerund|tape-PROG prep|at pro:poss:det|their n|home .","n:gerund|tape-PROG","part|tape-PROG",
"4","*MOT:","he held out his arms but the broom pushed him down .","pro:sub|he v|hold&PAST prep|out pro:poss:det|his n|arm-PL conj|but det|the n|broom v|push-PAST pro:obj|him adv:loc|down .","prep|out","adv:loc|out",
"5","*MOT:","is there any way to stop the broom ?","v:cop|be&3S adv:loc|there qn|any n|way inf|to v|stop det|the n|broom ?","adv:loc|there","pro:exist",
"7","*CHI:","cop ah be .","n|cop unk|ah v:cop|be .","n|cop","unk|cop",
"7","*CHI:","cop ah be .","n|cop unk|ah v:cop|be .","v:cop|be","unk|be",
"9","*MOT:","but all the pieces started to move , and all the new brooms had arms and legs and buckets , and they kept marching up and down the stairs .","conj|but qn|all det|the n|piece-PL part|start-PERF inf|to v|move , coord|and qn|all det|the adj|new n|broom-PL v|have&PAST n|arm-PL coord|and n|leg-PL coord|and n|bucket-PL , coord|and pro:sub|they v|keep&PAST n:gerund|march-PROG adv:loc|up coord|and adv:loc|down det|the n|stair-PL .","n:gerund|march-PROG","part|march-PROG",
"9","*MOT:","but all the pieces started to move , and all the new brooms had arms and legs and buckets , and they kept marching up and down the stairs .","conj|but qn|all det|the n|piece-PL part|start-PERF inf|to v|move , coord|and qn|all det|the adj|new n|broom-PL v|have&PAST n|arm-PL coord|and n|leg-PL coord|and n|bucket-PL , coord|and pro:sub|they v|keep&PAST n:gerund|march-PROG adv:loc|up coord|and adv:loc|down det|the n|stair-PL .","adv:loc|up","prep|up",
"9","*MOT:","but all the pieces started to move , and all the new brooms had arms and legs and buckets , and they kept marching up and down the stairs .","conj|but qn|all det|the n|piece-PL part|start-PERF inf|to v|move , coord|and qn|all det|the adj|new n|broom-PL v|have&PAST n|arm-PL coord|and n|leg-PL coord|and n|bucket-PL , coord|and pro:sub|they v|keep&PAST n:gerund|march-PROG adv:loc|up coord|and adv:loc|down det|the n|stair-PL .","adv:loc|down","prep|down",
"10","*MOT:","Mickey leaned against the door to keep them out but they kept coming .","n:prop|Mickey v|lean-PAST prep|against det|the n|door inf|to v|keep pro:obj|them n|out conj|but pro:sub|they v|keep&PAST part|come-PROG .","n|out","adv:loc|out",
"13","*MOT:","he tried to get the magic book , but he couldn't find the magic words , the water started to go around and around and around .","pro:sub|he v|try-PAST inf|to v|get det|the n|magic n|book , conj|but pro:sub|he mod|could~neg|not v|find det|the n|magic n|word-PL , det|the n|water v|start-PAST inf|to v|go adv:loc|around coord|and adv:loc|around coord|and adv:loc|around .","n|magic","adj|magic",
"13","*MOT:","he tried to get the magic book , but he couldn't find the magic words , the water started to go around and around and around .","pro:sub|he v|try-PAST inf|to v|get det|the n|magic n|book , conj|but pro:sub|he mod|could~neg|not v|find det|the n|magic n|word-PL , det|the n|water v|start-PAST inf|to v|go adv:loc|around coord|and adv:loc|around coord|and adv:loc|around .","n|magic","adj|magic",
"14","*CHI:","Round and round .","n:prop|Round coord|and adv|round .","n:prop|Round","adv|round",
"15","*MOT:","(laugh) Mickey couldn't find the words , there was nothing he could do .","(unk|laugh) n:prop|Mickey mod|could~neg|not v|find det|the n|word-PL , adv:loc|there v:cop|be&PAST&13S pro:indef|nothing pro:sub|he mod|could v|do .","adv:loc|there","pro:exist",
"16","*MOT:","suddenly there was a great shadow on the wall .","adv|sudden&dadj-LY adv:loc|there v:cop|be&PAST&13S det|a adj|great n|shadow prep|on det|the n|wall .","adv:loc|there","pro:exist",
"21","*MOT:","all the water and the brooms were gone , just one broom was left .","qn|all det|the n|water coord|and det|the n|broom-PL v:cop|be&PAST part|go&PERF , adv:int|just det:num|one n|broom aux|be&PAST&13S adj|left .","v:cop|be&PAST","aux|be&PAST",
"21","*MOT:","all the water and the brooms were gone , just one broom was left .","qn|all det|the n|water coord|and det|the n|broom-PL v:cop|be&PAST part|go&PERF , adv:int|just det:num|one n|broom aux|be&PAST&13S adj|left .","aux|be&PAST&13S","v:cop|be&3S",
"22","*MOT:","the sorcerer looked down at Mickey , he was mad .","det|the n|sorcerer v|look-PAST prep|down prep|at n:prop|Mickey , pro:sub|he v:cop|be&PAST&13S adj|mad .","prep|down","adv:loc|down",
"23","*MOT:","the Mickey took off the sorcerer's hat and gave it back .","unk|the n:prop|Mickey v|take&PAST prep|off det|the n|sorcerer~poss|s n|hat coord|and v|give&PAST pro|it adv:loc|back .","unk|the","det|the",
,,,,,,
"23","*MOT:","the Mickey took off the sorcerer's hat and gave it back .","unk|the n:prop|Mickey v|take&PAST prep|off det|the n|sorcerer~poss|s n|hat coord|and v|give&PAST pro|it adv:loc|back .","prep|off","adv:loc|off",
"25","*MOT:","the sorcerer looked down at Mickey and he said +...","det|the n|sorcerer v|look-PAST prep|down prep|at n:prop|Mickey coord|and pro:sub|he v|say&PAST +...","prep|down","adv:loc|down",
"31","*MOT:","can you put this book back for me ?","mod|can pro|you v|put&ZERO det|this n|book adj|back prep|for pro:obj|me ?","adj|back","adv:loc|back",
"35","*INV:","we I here's a consent form , quote unquote , xxx +...","unk|we unk|I adv:loc|here~v:cop|be&3S det|a n|consent n|form , n|quote n|quote , unk|xxx +...","unk|we","pro:subj|we",
"35","*INV:","we I here's a consent form , quote unquote , xxx +...","unk|we unk|I adv:loc|here~v:cop|be&3S det|a n|consent n|form , n|quote n|quote , unk|xxx +...","unk|I","pro:subj|I",
"35","*INV:","we I here's a consent form , quote unquote , xxx +...","unk|we unk|I adv:loc|here~v:cop|be&3S det|a n|consent n|form , n|quote n|quote , unk|xxx +...","n|consent n|form","n|+n|consent+n|form",
"36","*MOT:","yeah Dan was just saying that , he said , +""/.","co|yeah n:prop|Dan aux|be&PAST&13S adv:int|just adj:part|say-PROG rel|that , pro:sub|he v|say&PAST , +""/.","adv:int|just","adv|just",
"36","*MOT:","yeah Dan was just saying that , he said , +""/.","co|yeah n:prop|Dan aux|be&PAST&13S adv:int|just adj:part|say-PROG rel|that , pro:sub|he v|say&PAST , +""/.","adj:part|say-PROG","part|say-PROG",
"36","*MOT:","yeah Dan was just saying that , he said , +""/.","co|yeah n:prop|Dan aux|be&PAST&13S adv:int|just adj:part|say-PROG rel|that , pro:sub|he v|say&PAST , +""/.","rel|that","pro:dem|that",
"38","*INV:","(laugh) yeah , um .","(unk|laugh) co|yeah , unk|um .","unk|um","fil|um",
"40","*INV:","here , how much did Projectdirector tell you about it , over the phone ?","adv:loc|here , adv:wh|how qn|much v|do&PAST n:prop|Projectdirector v|tell pro|you prep|about pro|it , prep|over det|the n|phone ?","adv:loc|here","co|here",
"41","*MOT:","just what was on the , um , just what was posted .","adv:int|just pro:wh|what v:cop|be&PAST&13S prep|on det|the , unk|um , adv:int|just pro:wh|what aux|be&PAST&13S part|post-PERF .","unk|um","fil|um",
"43","*INV:","um .","unk|um .","unk|um","fil|um",
"45","*INV:","I don't want to tell you too much until after we're done .","pro:sub|I mod|do~neg|not v|want inf|to v|tell pro|you adv:int|too qn|much prep|until prep|after pro:sub|we~aux|be&PRES part|do&PERF .","prep|until","conj|until",
"46","*INV:","but basically we're looking at mother and child interactions and conversation , language , and stuff like that .","conj|but adv|basic&dadj-AL-LY pro:sub|we~aux|be&PRES part|look-PROG prep|at n|mother coord|and n|child n|interaction-PL coord|and n|conversation , n|language , coord|and v|stuff prep|like pro:dem|that .","v|stuff","n|stuff",
"47","*INV:","um .","unk|um .","unk|um","fil|um",
"49","*INV:","there were , well , there shouldn't be three sessions , but +...","adv:loc|there v:cop|be&PAST , co|well , adv:loc|there mod|should~neg|not v:cop|be det:num|three n|session-PL , conj|but +...","adv:loc|there","pro:exist",
"49","*INV:","there were , well , there shouldn't be three sessions , but +...","adv:loc|there v:cop|be&PAST , co|well , adv:loc|there mod|should~neg|not v:cop|be det:num|three n|session-PL , conj|but +...","adv:loc|there","pro:exist",
"51","*INV:","there should be only two .","adv:loc|there mod|should v:cop|be qn|only det:num|two .","adv:loc|there","pro:exist",
"52","*INV:","the first one's like about a half hour +...","det|the adj|first pro:indef|one~aux|be&3S co|like prep|about det|a n|half n|hour +...","pro:indef|one~aux|be&3S","pro:indef|one~v:cop|be&3S",
"52","*INV:","the first one's like about a half hour +...","det|the adj|first pro:indef|one~aux|be&3S co|like prep|about det|a n|half n|hour +...","n|half","adj|half",
"56","*MOT:","maybe if we do the second hour on a Saturday .","adv|maybe conj|if pro:sub|we v|do det|the n|second n|hour prep|on det|a n:prop|Saturday .","n|second","adj|second",
"58","*MOT:","either that or really early in the morning .","conj|either det|that coord|or adv|real&dadj-LY adj|early prep|in det|the n|morning .","det|that","pro:dem|that",
"58","*MOT:","either that or really early in the morning .","conj|either det|that coord|or adv|real&dadj-LY adj|early prep|in det|the n|morning .","adv|real&dadj-LY","adv:int|really",
"63","*MOT:","we're not ready to go yet sweetheart , we're gonna play a little bit more , okay , or read .","pro:sub|we~v:cop|be&PRES neg|not adj|ready inf|to v|go adv|yet n|+n|sweet+n|heart , pro:sub|we~aux|be&PRES part|go-PROG~inf|to v|play det|a adj|little n|bit qn|more , adj|okay , coord|or v|read&ZERO .","qn|more","adv|more",
"63","*MOT:","we're not ready to go yet sweetheart , we're gonna play a little bit more , okay , or read .","pro:sub|we~v:cop|be&PRES neg|not adj|ready inf|to v|go adv|yet n|+n|sweet+n|heart , pro:sub|we~aux|be&PRES part|go-PROG~inf|to v|play det|a adj|little n|bit qn|more , adj|okay , coord|or v|read&ZERO .","adj|okay","co|okay",
"66","*MOT:","it's a consent form .","pro|it~v:cop|be&3S det|a n|consent n|form .","n|consent n|form","n|+n|consent+n|form",
"69","*MOT:","what letters do you know ?","pro:wh|what n|letter-PL v|do pro|you v|know ?","pro:wh|what","det:wh|what",
"69","*MOT:","what letters do you know ?","pro:wh|what n|letter-PL v|do pro|you v|know ?","v|do","mod|do",
"72","*MOT:","you're right there is a number two .","pro|you~v:cop|be&PRES adj|right adv:loc|there v:cop|be&3S det|a n|number det:num|two .","adv:loc|there","pro:exist",
"77","*MOT:","do you have some letters on your shirt ?","v|do pro|you v|have qn|some n|letter-PL prep|on pro:poss:det|your n|shirt ?","v|do","mod|do",
"80","*MOT:","it's easier to read the letters on the refrigerator , right ?","pro|it~aux|be&3S adj|ease&dn-Y-CP inf|to v|read&ZERO det|the n|letter-PL prep|on det|the n|refrigerator , co|right ?","pro|it~aux|be&3S","pro|it~v:cop|be&3S",
"86","*MOT:","do you know what book I found Child , I found the teddy bear book .","mod|do pro|you v|know pro:wh|what n|book pro:sub|I v|find&PAST n:prop|Child , pro:sub|I v|find&PAST det|the n|teddy n|bear n|book .","pro:wh|what","det:wh|what",
"86","*MOT:","do you know what book I found Child , I found the teddy bear book .","mod|do pro|you v|know pro:wh|what n|book pro:sub|I v|find&PAST n:prop|Child , pro:sub|I v|find&PAST det|the n|teddy n|bear n|book .","n|teddy n|bear","n|+n|teddy+n|bear",
"89","*MOT:","do you remember , it was lost , I found it in underneath your back+pack .","v|do pro|you v|remember , pro|it v:cop|be&PAST&13S adj|lost , pro:sub|I v|find&PAST pro|it unk|in prep|underneath pro:poss:det|your n|+n|back+n|pack .","v|do","mod|do",
"89","*MOT:","do you remember , it was lost , I found it in underneath your back+pack .","v|do pro|you v|remember , pro|it v:cop|be&PAST&13S adj|lost , pro:sub|I v|find&PAST pro|it unk|in prep|underneath pro:poss:det|your n|+n|back+n|pack .","unk|in","prep|in",
"90","*CHI:","teddy bear .","n|teddy n|bear .","n|teddy n|bear","n|+n|teddy+n|bear",
"91","*MOT:","here's the teddy bear book , do you wanna read that one ?","adv:loc|here~v:cop|be&3S det|the n|teddy n|bear n|book , mod|do pro|you v|want~inf|to v|read&ZERO det|that pro:indef|one ?","n|teddy n|bear","n|+n|teddy+n|bear",
"97","*MOT:","baby bear ?","n|baby n|bear ?","n|baby","adj|baby",
"99","*MOT:","baby bear book ?","adj|babe&dn-Y n|bear n|book ?","adj|babe&dn-Y","adj|baby",
"122","*MOT:","what book do you wanna read ?","pro:wh|what n|book mod|do pro|you v|want~inf|to v|read&ZERO ?","pro:wh|what","det:wh|what",
"138","*CHI:","oh , night night moon , night night moonie@c , xxx night night moon .","co|oh , n|night n|night n|moon , n|night n|night chi|moonie , unk|xxx n|night n|night n|moon .","n|night","co|night",
"138","*CHI:","oh , night night moon , night night moonie@c , xxx night night moon .","co|oh , n|night n|night n|moon , n|night n|night chi|moonie , unk|xxx n|night n|night n|moon .","n|night","co|night",
"138","*CHI:","oh , night night moon , night night moonie@c , xxx night night moon .","co|oh , n|night n|night n|moon , n|night n|night chi|moonie , unk|xxx n|night n|night n|moon .","n|night","co|night",
"138","*CHI:","oh , night night moon , night night moonie@c , xxx night night moon .","co|oh , n|night n|night n|moon , n|night n|night chi|moonie , unk|xxx n|night n|night n|moon .","n|night","co|night",
"138","*CHI:","oh , night night moon , night night moonie@c , xxx night night moon .","co|oh , n|night n|night n|moon , n|night n|night chi|moonie , unk|xxx n|night n|night n|moon .","n|night","co|night",
"138","*CHI:","oh , night night moon , night night moonie@c , xxx night night moon .","co|oh , n|night n|night n|moon , n|night n|night chi|moonie , unk|xxx n|night n|night n|moon .","n|night","co|night",
,,,,,,
"150","*MOT:","no , what ?","qn|no , pro:wh|what ?","qn|no","co|no",
"151","*CHI:","no , night night moon .","co|no , n|night n|night n|moon .","n|night","co|night",
"151","*CHI:","no , night night moon .","co|no , n|night n|night n|moon .","n|night","co|night",
"152","*MOT:","you don't wanna read night night moon ?","pro|you mod|do~neg|not v|want~inf|to v|read&ZERO n|night n|night n|moon ?","n|night","co|night",
"152","*MOT:","you don't wanna read night night moon ?","pro|you mod|do~neg|not v|want~inf|to v|read&ZERO n|night n|night n|moon ?","n|night","co|night",
"154","*MOT:","you do you wanna read this ?","unk|you mod|do pro|you v|want~inf|to v|read&ZERO pro:dem|this ?","unk|you","pro|you",
"159","*CHI:","I want no .","pro:sub|I unk|want co|no .","unk|want","v|want",
"166","*MOT:","you you don't want A_kiss_for_little_bear ?","unk|you pro|you mod|do~neg|not v|want n:prop|A_kiss_for_little_bear ?","unk|you","pro|you",
"176","*CHI:","a a train , xxx , puff puff puff .","unk|a det|a n|train , unk|xxx , n|puff n|puff n|puff .","unk|a","det|a",
"176","*CHI:","a a train , xxx , puff puff puff .","unk|a det|a n|train , unk|xxx , n|puff n|puff n|puff .","n|puff","on|puff",
"176","*CHI:","a a train , xxx , puff puff puff .","unk|a det|a n|train , unk|xxx , n|puff n|puff n|puff .","n|puff","on|puff",
"176","*CHI:","a a train , xxx , puff puff puff .","unk|a det|a n|train , unk|xxx , n|puff n|puff n|puff .","n|puff","on|puff",
"178","*MOT:","chug chug chug , puff puff puff , ding dong , ding dong .","v|chug v|chug v|chug , n|puff n|puff n|puff , v|ding int|dong , v|ding int|dong .","v|chug","on|chug",
"178","*MOT:","chug chug chug , puff puff puff , ding dong , ding dong .","v|chug v|chug v|chug , n|puff n|puff n|puff , v|ding int|dong , v|ding int|dong .","v|chug","on|chug",
"178","*MOT:","chug chug chug , puff puff puff , ding dong , ding dong .","v|chug v|chug v|chug , n|puff n|puff n|puff , v|ding int|dong , v|ding int|dong .","v|chug","on|chug",
"178","*MOT:","chug chug chug , puff puff puff , ding dong , ding dong .","v|chug v|chug v|chug , n|puff n|puff n|puff , v|ding int|dong , v|ding int|dong .","n|puff","on|puff",
"178","*MOT:","chug chug chug , puff puff puff , ding dong , ding dong .","v|chug v|chug v|chug , n|puff n|puff n|puff , v|ding int|dong , v|ding int|dong .","n|puff","on|puff",
"178","*MOT:","chug chug chug , puff puff puff , ding dong , ding dong .","v|chug v|chug v|chug , n|puff n|puff n|puff , v|ding int|dong , v|ding int|dong .","n|puff","on|puff",
"178","*MOT:","chug chug chug , puff puff puff , ding dong , ding dong .","v|chug v|chug v|chug , n|puff n|puff n|puff , v|ding int|dong , v|ding int|dong .","v|ding","on|ding",
,,,,,,
"178","*MOT:","chug chug chug , puff puff puff , ding dong , ding dong .","v|chug v|chug v|chug , n|puff n|puff n|puff , v|ding int|dong , v|ding int|dong .","int|dong","on|dong",
"178","*MOT:","chug chug chug , puff puff puff , ding dong , ding dong .","v|chug v|chug v|chug , n|puff n|puff n|puff , v|ding int|dong , v|ding int|dong .","v|ding","on|ding",
"178","*MOT:","chug chug chug , puff puff puff , ding dong , ding dong .","v|chug v|chug v|chug , n|puff n|puff n|puff , v|ding int|dong , v|ding int|dong .","int|dong","on|dong",
"183","*MOT:","she had toy animals , what animals were there ?","pro:sub|she v|have&PAST n|toy n|animal-PL , pro:wh|what n|animal-PL v:cop|be&PAST adv:loc|there ?","n|toy","adj|toy",
"183","*MOT:","she had toy animals , what animals were there ?","pro:sub|she v|have&PAST n|toy n|animal-PL , pro:wh|what n|animal-PL v:cop|be&PAST adv:loc|there ?","pro:wh|what","det:wh|what",
"183","*MOT:","she had toy animals , what animals were there ?","pro:sub|she v|have&PAST n|toy n|animal-PL , pro:wh|what n|animal-PL v:cop|be&PAST adv:loc|there ?","adv:loc|there","pro:exist",
"192","*MOT:","there were dolls , and there were puzzles and books , and all kinds of good things for boys and girls to eat .","adv:loc|there v:cop|be&PAST n|doll-PL , coord|and adv:loc|there v:cop|be&PAST n|puzzle-PL coord|and n|book-PL , coord|and qn|all n|kind-PL prep|of adj|good n|thing-PL prep|for n|boy-PL coord|and n|girl-PL inf|to v|eat .","adv:loc|there","pro:exist",
"192","*MOT:","there were dolls , and there were puzzles and books , and all kinds of good things for boys and girls to eat .","adv:loc|there v:cop|be&PAST n|doll-PL , coord|and adv:loc|there v:cop|be&PAST n|puzzle-PL coord|and n|book-PL , coord|and qn|all n|kind-PL prep|of adj|good n|thing-PL prep|for n|boy-PL coord|and n|girl-PL inf|to v|eat .","adv:loc|there","pro:exist",
,,,,,,
"199","*MOT:","all of the sudden the train stopped , she couldn't go any more .","pro:indef|all prep|of det|the n|sudden det|the n|train v|stop-PAST , pro:sub|she mod|could~neg|not v|go qn|any qn|more .","qn|more","adv|more",
"200","*CHI:","no more .","qn|no qn|more .","qn|more","adv|more",
"201","*MOT:","any more .","qn|any qn|more .","qn|more","adv|more",
"202","*MOT:","so sh the little clown said let's ask another engine , here comes a shiny new engine .","co|so unk|sh det|the adj|little n|clown v|say&PAST v|let~pro:obj|us v|ask qn|another n|engine , adv:loc|here v|come-3S det|a adj|shine&dn-Y adj|new n|engine .","co|so","conj|so",
"202","*MOT:","so sh the little clown said let's ask another engine , here comes a shiny new engine .","co|so unk|sh det|the adj|little n|clown v|say&PAST v|let~pro:obj|us v|ask qn|another n|engine , adv:loc|here v|come-3S det|a adj|shine&dn-Y adj|new n|engine .","unk|sh","co|sh",
"203","*MOT:","and they all said together , +""/.","coord|and pro:sub|they adv:int|all part|say&PERF adv|together , +""/.","adv:int|all","qn|all",
"203","*MOT:","and they all said together , +""/.","coord|and pro:sub|they adv:int|all part|say&PERF adv|together , +""/.","part|say&PERF","v|say&PAST",
"204","*MOT:","please shiny new engine , won't you please pull out train over the mountain ?","v|please adj|shine&dn-Y adj|new n|engine , mod|will~neg|not pro|you co|please v|pull prep|out n|train prep|over det|the n|mountain ?","v|please","co|please",
"206","*MOT:","I pull you , I'm a passenger train , xxx , I just carried a big train over the mountain , I'm not going to pull you .","pro:sub|I v|pull pro|you , pro:sub|I~v:cop|be&1S det|a n|passenger n|train , unk|xxx , pro:sub|I adv:int|just part|carry-PERF det|a adj|big n|train prep|over det|the n|mountain , pro:sub|I~v:cop|be&1S neg|not part|go-PROG inf|to v|pull pro|you .","n|passenger n|train","n|+n|passenger+n|train",
"206","*MOT:","I pull you , I'm a passenger train , xxx , I just carried a big train over the mountain , I'm not going to pull you .","pro:sub|I v|pull pro|you , pro:sub|I~v:cop|be&1S det|a n|passenger n|train , unk|xxx , pro:sub|I adv:int|just part|carry-PERF det|a adj|big n|train prep|over det|the n|mountain , pro:sub|I~v:cop|be&1S neg|not part|go-PROG inf|to v|pull pro|you .","part|carry-PERF","v|carry-PAST",
"206","*MOT:","I pull you , I'm a passenger train , xxx , I just carried a big train over the mountain , I'm not going to pull you .","pro:sub|I v|pull pro|you , pro:sub|I~v:cop|be&1S det|a n|passenger n|train , unk|xxx , pro:sub|I adv:int|just part|carry-PERF det|a adj|big n|train prep|over det|the n|mountain , pro:sub|I~v:cop|be&1S neg|not part|go-PROG inf|to v|pull pro|you .","pro:sub|I~v:cop|be&1S","pro:sub|I~aux|be&1S",
"213","*MOT:","oh please big engine won't you please pull our train over the mountains ?","co|oh v|please adj|big n|engine mod|will~neg|not pro|you co|please v|pull pro:poss:det|our n|train prep|over det|the n|mountain-PL ?","v|please","co|please",
"215","*MOT:","I'm a freight engine .","pro:sub|I~v:cop|be&1S det|a n|freight n|engine .","n|freight n|engine","n|+n|freight+n|engine",
"217","*MOT:","and then they were all very sad .","coord|and adv:tem|then pro:sub|they aux|be&PAST post|all adv:int|very adj|sad .","post|all","qn|all",
"219","*MOT:","he looks very tired but maybe he can help us .","pro:sub|he v|look-3S adv:int|very v|tire-PAST conj|but adv|maybe pro:sub|he mod|can v|help pro:obj|us .","v|tire-PAST","part|tire-PERF",
"220","*MOT:","so they said +""/.","co|so pro:sub|they v|say&PAST +""/.","co|so","conj|so",
"221","*MOT:","please kind engine , won't you please pull our train over the mountain ?","v|please n|kind n|engine , mod|will~neg|not pro|you co|please v|pull pro:poss:det|our n|train prep|over det|the n|mountain ?","v|please","co|please",
"221","*MOT:","please kind engine , won't you please pull our train over the mountain ?","v|please n|kind n|engine , mod|will~neg|not pro|you co|please v|pull pro:poss:det|our n|train prep|over det|the n|mountain ?","n|kind","adj|kind",
"223","*MOT:","I'm too tired , I can't even pull even a little train , I can not , I can not , I can not .","pro:sub|I~v:cop|be&1S adv:int|too v|tire-PAST , pro:sub|I mod|can~neg|not adv:int|even v|pull adv:int|even det|a adj|little n|train , pro:sub|I mod|can neg|not , pro:sub|I mod|can neg|not , pro:sub|I mod|can neg|not .","pro:sub|I~v:cop|be&1S","pro:sub|I~aux|be&1S",
"223","*MOT:","I'm too tired , I can't even pull even a little train , I can not , I can not , I can not .","pro:sub|I~v:cop|be&1S adv:int|too v|tire-PAST , pro:sub|I mod|can~neg|not adv:int|even v|pull adv:int|even det|a adj|little n|train , pro:sub|I mod|can neg|not , pro:sub|I mod|can neg|not , pro:sub|I mod|can neg|not .","v|tire-PAST","part|tire-PERF",
"226","*MOT:","oh please little blue engine , won't you please pull us over the mountain ?","co|oh v|please adj|little n|blue n|engine , mod|will~neg|not pro|you co|please v|pull pro:obj|us prep|over det|the n|mountain ?","v|please","co|please",
"226","*MOT:","oh please little blue engine , won't you please pull us over the mountain ?","co|oh v|please adj|little n|blue n|engine , mod|will~neg|not pro|you co|please v|pull pro:obj|us prep|over det|the n|mountain ?","n|blue","adj|blue",
"227","*MOT:","our engine broke down , and now the boys and girls on the other side of the mountain won't have any toys to play with or things to eat unless you help us .","pro:poss:det|our n|engine v|break&PAST adv:loc|down , coord|and adv|now det|the n|boy-PL coord|and n|girl-PL prep|on det|the qn|other n|side prep|of det|the n|mountain mod|will~neg|not v|have qn|any n|toy-PL prep|to n|play prep|with coord|or n|thing-PL inf|to v|eat conj|unless pro|you v|help pro:obj|us .","prep|to","inf|to",
"227","*MOT:","our engine broke down , and now the boys and girls on the other side of the mountain won't have any toys to play with or things to eat unless you help us .","pro:poss:det|our n|engine v|break&PAST adv:loc|down , coord|and adv|now det|the n|boy-PL coord|and n|girl-PL prep|on det|the qn|other n|side prep|of det|the n|mountain mod|will~neg|not v|have qn|any n|toy-PL prep|to n|play prep|with coord|or n|thing-PL inf|to v|eat conj|unless pro|you v|help pro:obj|us .","n|play","v|play",
,,,,,,
"232","*MOT:","and so she hitched herself up to the train and they started to go puff , puff , chug , chug +...","coord|and co|so pro:sub|she v|hitch-PAST pro:refl|herself prep|up prep|to det|the n|train coord|and pro:sub|they v|start-PAST inf|to v|go n|puff , n|puff , v|chug , v|chug +...","co|so","conj|so",
"232","*MOT:","and so she hitched herself up to the train and they started to go puff , puff , chug , chug +...","coord|and co|so pro:sub|she v|hitch-PAST pro:refl|herself prep|up prep|to det|the n|train coord|and pro:sub|they v|start-PAST inf|to v|go n|puff , n|puff , v|chug , v|chug +...","prep|up","adv:loc|up",
"232","*MOT:","and so she hitched herself up to the train and they started to go puff , puff , chug , chug +...","coord|and co|so pro:sub|she v|hitch-PAST pro:refl|herself prep|up prep|to det|the n|train coord|and pro:sub|they v|start-PAST inf|to v|go n|puff , n|puff , v|chug , v|chug +...","n|puff","on|puff",
"232","*MOT:","and so she hitched herself up to the train and they started to go puff , puff , chug , chug +...","coord|and co|so pro:sub|she v|hitch-PAST pro:refl|herself prep|up prep|to det|the n|train coord|and pro:sub|they v|start-PAST inf|to v|go n|puff , n|puff , v|chug , v|chug +...","n|puff","on|puff",
"232","*MOT:","and so she hitched herself up to the train and they started to go puff , puff , chug , chug +...","coord|and co|so pro:sub|she v|hitch-PAST pro:refl|herself prep|up prep|to det|the n|train coord|and pro:sub|they v|start-PAST inf|to v|go n|puff , n|puff , v|chug , v|chug +...","v|chug","on|chug",
"232","*MOT:","and so she hitched herself up to the train and they started to go puff , puff , chug , chug +...","coord|and co|so pro:sub|she v|hitch-PAST pro:refl|herself prep|up prep|to det|the n|train coord|and pro:sub|they v|start-PAST inf|to v|go n|puff , n|puff , v|chug , v|chug +...","v|chug","on|chug",
"233","*CHI:","chug , chug go gachink@o .","v|chug , v|chug v|go on|gachink .","v|chug","on|chug",
"233","*CHI:","chug , chug go gachink@o .","v|chug , v|chug v|go on|gachink .","v|chug","on|chug",
,,,,,,
"236","*MOT:","up up up up faster and faster faster faster , the little train climbed until they got_to the top of the mountain .","adv:loc|up adv:loc|up adv:loc|up prep|up adj|fast-CP coord|and adj|fast-CP adj|fast-CP adj|fast-CP , det|the adj|little n|train v|climb-PAST prep|until pro:sub|they mod:aux|got_to det|the n|top prep|of det|the n|mountain .","prep|up","adv:loc|up",
"236","*MOT:","up up up up faster and faster faster faster , the little train climbed until they got_to the top of the mountain .","adv:loc|up adv:loc|up adv:loc|up prep|up adj|fast-CP coord|and adj|fast-CP adj|fast-CP adj|fast-CP , det|the adj|little n|train v|climb-PAST prep|until pro:sub|they mod:aux|got_to det|the n|top prep|of det|the n|mountain .","prep|until","conj|until",
"242","*MOT:","from here , or from someplace else ?","prep|from adv:loc|here , coord|or prep|from n|someplace post|else ?","n|someplace","adv:loc|someplace",
,,,,,,
"246","*CHI:","uh , uh , um , um , um , up , up table .","unk|uh , unk|uh , unk|um , unk|um , unk|um , adv:loc|up , prep|up n|table .","prep|up","adv:loc|up",
"247","*MOT:","yeah , you're right , it's up on the table .","co|yeah , pro|you~v:cop|be&PRES adj|right , pro|it~v:cop|be&3S prep|up prep|on det|the n|table .","prep|up","adv:loc|up",
"257","*MOT:","a mother bird sat on her egg .","det|a n|mother n|bird v|sit&PAST prep|on pro:poss:det|her n|egg .","n|mother","adj|mother",
"259","*MOT:","oh my , said the baby bird , my baby will be here .","co|oh pro:poss:det|my , part|say&PERF det|the adj|babe&dn-Y n|bird , co|my adj|babe&dn-Y mod|will v:cop|be adv:loc|here .","pro:poss:det|my","co|my",
"259","*MOT:","oh my , said the baby bird , my baby will be here .","co|oh pro:poss:det|my , part|say&PERF det|the adj|babe&dn-Y n|bird , co|my adj|babe&dn-Y mod|will v:cop|be adv:loc|here .","part|say&PERF","v|say&PAST",
"259","*MOT:","oh my , said the baby bird , my baby will be here .","co|oh pro:poss:det|my , part|say&PERF det|the adj|babe&dn-Y n|bird , co|my adj|babe&dn-Y mod|will v:cop|be adv:loc|here .","adj|babe&dn-Y","adj|baby",
"259","*MOT:","oh my , said the baby bird , my baby will be here .","co|oh pro:poss:det|my , part|say&PERF det|the adj|babe&dn-Y n|bird , co|my adj|babe&dn-Y mod|will v:cop|be adv:loc|here .","co|my","pro:poss:det|my",
"259","*MOT:","oh my , said the baby bird , my baby will be here .","co|oh pro:poss:det|my , part|say&PERF det|the adj|babe&dn-Y n|bird , co|my adj|babe&dn-Y mod|will v:cop|be adv:loc|here .","adj|babe&dn-Y","n|baby",
"261","*MOT:","I must get something for my baby bird to eat .","pro:sub|I mod|must v|get pro:indef|something prep|for pro:poss:det|my adj|babe&dn-Y n|bird inf|to v|eat .","adj|babe&dn-Y","adj|baby",
"263","*MOT:","so away she went .","co|so adv|away pro:sub|she v|go&PAST .","co|so","conj|so",
"267","*MOT:","(laugh) and jumped and jumped and out came +...","(unk|laugh) coord|and v|jump-PAST coord|and v|jump-PAST coord|and n|out v|come&PAST +...","n|out","adv:loc|out",
,,,,,,
"269","*MOT:","the baby bird .","det|the adj|babe&dn-Y n|bird .","adj|babe&dn-Y","adj|baby",
,,,,,,
"273","*MOT:","he looked up , he didn't see her .","pro:sub|he v|look-PAST prep|up , pro:sub|he mod|do&PAST~neg|not v|see pro:obj|her .","prep|up","adv:loc|up",
"277","*MOT:","is she down there ?","aux|be&3S pro:sub|she adv:loc|down adv:loc|there ?","aux|be&3S","v:cop|be&3S",
"281","*MOT:","and so away he went , down out of the tree he went , down , down , down .","coord|and co|so adv|away pro:sub|he v|go&PAST , prep|down n|out prep|of det|the n|tree pro:sub|he v|go&PAST , adv:loc|down , adv:loc|down , adv:loc|down .","co|so","conj|so",
"281","*MOT:","and so away he went , down out of the tree he went , down , down , down .","coord|and co|so adv|away pro:sub|he v|go&PAST , prep|down n|out prep|of det|the n|tree pro:sub|he v|go&PAST , adv:loc|down , adv:loc|down , adv:loc|down .","prep|down","adv:loc|down",
"281","*MOT:","and so away he went , down out of the tree he went , down , down , down .","coord|and co|so adv|away pro:sub|he v|go&PAST , prep|down n|out prep|of det|the n|tree pro:sub|he v|go&PAST , adv:loc|down , adv:loc|down , adv:loc|down .","n|out prep|of","prep|+prep|out+prep|of",
"284","*MOT:","the baby bird couldn't fly .","det|the adj|babe&dn-Y n|bird mod|could~neg|not v|fly .","adj|babe&dn-Y","adj|baby",
"285","*CHI:","baby baby bird .","n|baby n|baby n|bird .","n|baby","adj|baby",
"285","*CHI:","baby baby bird .","n|baby n|baby n|bird .","n|baby","adj|baby",
"292","*MOT:","she's , she's , well she's not gonna eat it , she's gonna get it for the baby to eat , it's a worm .","pro:sub|she~v|have&3S , pro:sub|she~v:cop|be&3S , co|well pro:sub|she~aux|be&3S neg|not part|go-PROG~inf|to v|eat pro|it , pro:sub|she~aux|be&3S part|go-PROG~inf|to v|get pro|it prep|for det|the n|baby inf|to v|eat , pro|it~v:cop|be&3S det|a n|worm .","pro:sub|she~v|have&3S","pro:sub|she~aux|be&3S",
"292","*MOT:","she's , she's , well she's not gonna eat it , she's gonna get it for the baby to eat , it's a worm .","pro:sub|she~v|have&3S , pro:sub|she~v:cop|be&3S , co|well pro:sub|she~aux|be&3S neg|not part|go-PROG~inf|to v|eat pro|it , pro:sub|she~aux|be&3S part|go-PROG~inf|to v|get pro|it prep|for det|the n|baby inf|to v|eat , pro|it~v:cop|be&3S det|a n|worm .","pro:sub|she~v:cop|be&3S","pro:sub|she~aux|be&3S",
"292","*MOT:","she's , she's , well she's not gonna eat it , she's gonna get it for the baby to eat , it's a worm .","pro:sub|she~v|have&3S , pro:sub|she~v:cop|be&3S , co|well pro:sub|she~aux|be&3S neg|not part|go-PROG~inf|to v|eat pro|it , pro:sub|she~aux|be&3S part|go-PROG~inf|to v|get pro|it prep|for det|the n|baby inf|to v|eat , pro|it~v:cop|be&3S det|a n|worm .","pro:sub|she~aux|be&3S","?",
"293","*CHI:","baby .","adj|babe&dn-Y .","adj|babe&dn-Y","n|baby",
"300","*MOT:","the kitten just looked and looked , he didn't say anything .","det|the n|kitten adv:int|just part|look-PERF coord|and v|look-PAST , pro:sub|he mod|do&PAST~neg|not v|say pro:indef|anything .","part|look-PERF","v|look-PAST",
"301","*MOT:","so the kitten wasn't his mother .","co|so det|the n|kitten v:cop|be&PAST&13S~neg|not pro:poss:det|his n|mother .","co|so","conj|so",
"306","*MOT:","chicken , right .","n|chicken , adv|right .","adv|right","adj|right",
"311","*MOT:","the kitten wasn't his mother , the hen wasn't his mother so the baby bird went on .","det|the n|kitten v:cop|be&PAST&13S~neg|not pro:poss:det|his n|mother , det|the n|hen v:cop|be&PAST&13S~neg|not pro:poss:det|his n|mother co|so det|the n|baby n|bird v|go&PAST adv|on .","co|so","conj|so",
"311","*MOT:","the kitten wasn't his mother , the hen wasn't his mother so the baby bird went on .","det|the n|kitten v:cop|be&PAST&13S~neg|not pro:poss:det|his n|mother , det|the n|hen v:cop|be&PAST&13S~neg|not pro:poss:det|his n|mother co|so det|the n|baby n|bird v|go&PAST adv|on .","n|baby","adj|baby",
"321","*MOT:","no , I'm not your mother , I'm a dog .","co|no , pro:sub|I~aux|be&1S neg|not pro:poss:det|your n|mother , pro:sub|I~aux|be&1S det|a n|dog .","pro:sub|I~aux|be&1S","pro:sub|I~v:cop|be&1S",
"321","*MOT:","no , I'm not your mother , I'm a dog .","co|no , pro:sub|I~aux|be&1S neg|not pro:poss:det|your n|mother , pro:sub|I~aux|be&1S det|a n|dog .","pro:sub|I~aux|be&1S","pro:sub|I~v:cop|be&1S",
"334","*MOT:","the kitten and the hen weren't his mother , the dog and the cow weren't his mother , did he have a mother ?","det|the n|kitten coord|and det|the n|hen v:cop|be&PAST~neg|not pro:poss:det|his n|mother , det|the n|dog coord|and det|the n|cow v:cop|be&PAST~neg|not pro:poss:det|his n|mother , v|do&PAST pro:sub|he v|have det|a n|mother ?","v|do&PAST","mod|do&PAST",
"341","*MOT:","now right your mommy is your mother .","unk|now co|right pro:poss:det|your n|mommy v:cop|be&3S pro:poss:det|your n|mother .","unk|now","adv|now",
"341","*MOT:","now right your mommy is your mother .","unk|now co|right pro:poss:det|your n|mommy v:cop|be&3S pro:poss:det|your n|mother .","co|right","adj|right",
"342","*MOT:","then the baby bird didn't walk , he ran .","adv:tem|then det|the adj|babe&dn-Y n|bird mod|do&PAST~neg|not v|walk , pro:sub|he v|run&PAST .","adj|babe&dn-Y","adj|baby",
"346","*MOT:","then he looked way down , what did he see ?","adv:tem|then pro:sub|he v|look-PAST n|way prep|down , pro:wh|what mod|do&PAST pro:sub|he v|see ?","n|way","adv|way",
"346","*MOT:","then he looked way down , what did he see ?","adv:tem|then pro:sub|he v|look-PAST n|way prep|down , pro:wh|what mod|do&PAST pro:sub|he v|see ?","prep|down","adv:loc|down",
"352","*MOT:","up in the sky , what was it ?","adv:loc|up prep|in det|the n|sky , pro:wh|what aux|be&PAST&13S pro|it ?","aux|be&PAST&13S","v:cop|be&13S",
"356","*MOT:","then the baby bird saw a big thing , this must be his mother .","adv:tem|then det|the n|baby n|bird v|see&PAST det|a adj|big n|thing , det|this mod|must v:cop|be pro:poss:det|his n|mother .","n|baby","adj|baby",
"356","*MOT:","then the baby bird saw a big thing , this must be his mother .","adv:tem|then det|the n|baby n|bird v|see&PAST det|a adj|big n|thing , det|this mod|must v:cop|be pro:poss:det|his n|mother .","det|this","pro:dem|this",
,,,,,,
,,,,,,
"360","*CHI:","snort .","n|snort .","n|snort","on|snort",
"361","*MOT:","snort , right .","n|snort , adv|right .","n|snort","on|snort",
"361","*MOT:","snort , right .","n|snort , adv|right .","adv|right","adj|right",
"362","*MOT:","he ran right up to it and said mother , mother .","pro:sub|he v|run&PAST adv:loc|right adv:loc|up prep|to pro|it coord|and v|say&PAST n|mother , n|mother .","adv:loc|right","adv|right",
"364","*CHI:","snort .","n|snort .","n|snort","on|snort",
"365","*MOT:","snort .","n|snort .","n|snort","on|snort",
,,,,,,
"366","*MOT:","oh you're not my mother , the bird said , you're a snort , I have_to get out of here .","co|oh pro|you~v:cop|be&PRES neg|not pro:poss:det|my n|mother , det|the n|bird v|say&PAST , pro|you~v:cop|be&PRES det|a n|snort , pro:sub|I mod:aux|have_to v|get n|out prep|of adv:loc|here .","n|out","adv:loc|out",
"367","*MOT:","but the baby bird couldn't get away , the snort went up it went way up +...","conj|but det|the n|baby n|bird mod|could~neg|not v|get adv|away , det|the n|snort v|go&PAST prep|up pro|it v|go&PAST n|way adv:loc|up +...","n|baby","adj|baby",
,,,,,,
"367","*MOT:","but the baby bird couldn't get away , the snort went up it went way up +...","conj|but det|the n|baby n|bird mod|could~neg|not v|get adv|away , det|the n|snort v|go&PAST prep|up pro|it v|go&PAST n|way adv:loc|up +...","prep|up","adv:loc|up",
"367","*MOT:","but the baby bird couldn't get away , the snort went up it went way up +...","conj|but det|the n|baby n|bird mod|could~neg|not v|get adv|away , det|the n|snort v|go&PAST prep|up pro|it v|go&PAST n|way adv:loc|up +...","n|way","adv:int|way",
"369","*MOT:","up , up , up , went the baby bird .","adv:loc|up , adv:loc|up , adv:loc|up , v|go&PAST det|the n|baby n|bird .","n|baby","adj|baby",
"371","*MOT:","but where's the snort going , uh oh , what is the snort gonna do to me , get me out of here .","conj|but adv:wh|where~v:cop|be&3S det|the n|snort part|go-PROG , unk|uh co|oh , pro:wh|what v:cop|be&3S det|the n|snort part|go-PROG~inf|to v|do prep|to pro:obj|me , v|get pro:obj|me n|out prep|of adv:loc|here .","adv:wh|where~v:cop|be&3S","adv:wh|where~aux|be&3S",
"371","*MOT:","but where's the snort going , uh oh , what is the snort gonna do to me , get me out of here .","conj|but adv:wh|where~v:cop|be&3S det|the n|snort part|go-PROG , unk|uh co|oh , pro:wh|what v:cop|be&3S det|the n|snort part|go-PROG~inf|to v|do prep|to pro:obj|me , v|get pro:obj|me n|out prep|of adv:loc|here .","unk|uh co|oh","co|+co|uh+co|oh",
"371","*MOT:","but where's the snort going , uh oh , what is the snort gonna do to me , get me out of here .","conj|but adv:wh|where~v:cop|be&3S det|the n|snort part|go-PROG , unk|uh co|oh , pro:wh|what v:cop|be&3S det|the n|snort part|go-PROG~inf|to v|do prep|to pro:obj|me , v|get pro:obj|me n|out prep|of adv:loc|here .","v:cop|be&3S","aux|be&3S",
"371","*MOT:","but where's the snort going , uh oh , what is the snort gonna do to me , get me out of here .","conj|but adv:wh|where~v:cop|be&3S det|the n|snort part|go-PROG , unk|uh co|oh , pro:wh|what v:cop|be&3S det|the n|snort part|go-PROG~inf|to v|do prep|to pro:obj|me , v|get pro:obj|me n|out prep|of adv:loc|here .","n|out","adv:loc|out",
"374","*MOT:","where am I said the baby bird , I wanna go home .","adv:wh|where v:cop|be&1S pro:sub|I v|say&PAST det|the adj|babe&dn-Y n|bird , pro:sub|I v|want~inf|to v|go n|home .","adj|babe&dn-Y","adj|baby",
"377","*MOT:","the snort put that baby bird right back in the tree , the baby bird was home .","det|the n|snort v|put&ZERO det|that n|baby n|bird adv|right adv:loc|back prep|in det|the n|tree , det|the n|baby n|bird v:cop|be&PAST&13S n|home .","n|baby","adj|baby",
"377","*MOT:","the snort put that baby bird right back in the tree , the baby bird was home .","det|the n|snort v|put&ZERO det|that n|baby n|bird adv|right adv:loc|back prep|in det|the n|tree , det|the n|baby n|bird v:cop|be&PAST&13S n|home .","n|baby","adj|baby",
"378","*MOT:","just then the mother bird came back to the tree .","adv:int|just adv:tem|then det|the n|mother n|bird v|come&PAST adv:loc|back prep|to det|the n|tree .","n|mother","adj|mother",
"382","*MOT:","said the baby bird .","v|say&PAST det|the adj|babe&dn-Y n|bird .","adj|babe&dn-Y","adj|baby",
"398","*CHI:","out came a big bird .","n|out v|come&PAST det|a adj|big n|bird .","n|out","adv:loc|out",
"399","*MOT:","out came a baby bird .","n|out v|come&PAST det|a n|baby n|bird .","n|out","adv:loc|out",
"399","*MOT:","out came a baby bird .","n|out v|come&PAST det|a n|baby n|bird .","n|baby","adj|baby",
"410","*MOT:","are you gonna put it back ?","v:cop|be&PRES pro|you part|go-PROG~inf|to v|put&ZERO pro|it adv:loc|back ?","v:cop|be&PRES","aux|be&PRES",
"412","*MOT:","it was only on the table because it was ripped , but it's all fixed now .","pro|it v:cop|be&PAST&13S adv|only prep|on det|the n|table conj|because pro|it aux|be&PAST&13S part|rip-PERF , conj|but pro|it~v:cop|be&3S post|all v|fix-PAST adv|now .","post|all","adv:int|all",
"412","*MOT:","it was only on the table because it was ripped , but it's all fixed now .","pro|it v:cop|be&PAST&13S adv|only prep|on det|the n|table conj|because pro|it aux|be&PAST&13S part|rip-PERF , conj|but pro|it~v:cop|be&3S post|all v|fix-PAST adv|now .","v|fix-PAST","part|fix-PERF",
,,,,,,
"417","*INV:","I've got a toy bag here .","pro:sub|I~aux|have part|get&PERF det|a n|toy n|bag adv:loc|here .","n|toy n|bag","n|+n|toy+n|bag",
"418","*MOT:","oh you wanna see what toys Observer has ?","co|oh pro|you v|want~inf|to v|see pro:wh|what n|toy-PL n:prop|Observer v|have&3S ?","pro:wh|what","det:wh|what",
"430","*INV:","Child , there's a book in here if you wanna read it .","n:prop|Child , adv:loc|there~v:cop|be&3S det|a n|book adv:loc|in adv:loc|here conj|if pro|you v|want~inf|to v|read&ZERO pro|it .","adv:loc|there~v:cop|be&3S","pro:exist~v:cop|be&3S",
,,,,,,
"436","*MOT:","come on Eth , you tell me some of these things .","v|come prep|on n:prop|Eth , pro|you v|tell pro:obj|me qn|some prep|of det|these n|thing-PL .","prep|on","adv:loc|on",
"452","*MOT:","hot dog .","adj|hot n|dog .","adj|hot n|dog","n|+adj|hot+n|dog",
"456","*MOT:","it's a hose , like we use in a garden .","pro|it~v:cop|be&3S det|a n|hose , prep|like pro:sub|we v|use prep|in det|a n|garden .","prep|like","rel|like",
"457","*MOT:","do you know what color it is ?","mod|do pro|you v|know pro:wh|what n|color pro|it v:cop|be&3S ?","pro:wh|what","det:wh|what",
"460","*MOT:","let's oh , what's that .","unk|let's co|oh , pro:wh|what~v:cop|be&3S pro:dem|that .","unk|let's","v|let&ZERO~pro:obj|us",
"474","*MOT:","and it has a candle on it , what does that mean ?","coord|and pro|it v|have&3S det|a n|candle prep|on pro|it , pro:wh|what mod|do&3S pro:dem|that adj|mean ?","adj|mean","v|mean",
"487","*MOT:","getting a little sleepy , huh ?","part|get-PROG det|a adj|little adj|sleep&dn-Y , co|huh ?","adj|little","adv|little",
"490","*MOT:","it's a stop sign .","pro|it~v:cop|be&3S det|a n|stop n|sign .","n|stop n|sign","n|+n|stop+n|sign",
"492","*MOT:","like you have in your in your truck .","v|like pro|you v|have prep|in pro:poss:det|your prep|in pro:poss:det|your n|truck .","v|like","rel|like",
"497","*MOT:","oh , we have colors here .","co|oh , pro:sub|we v|have v|color-3S adv:loc|here .","v|color-3S","n|color-PL",
"499","*MOT:","those are strawberries , right , what color are they ?","pro:dem|those v:cop|be&PRES n|strawberry-PL , co|right , pro:wh|what n|color aux|be&PRES pro:sub|they ?","pro:wh|what","det:wh|what",
"499","*MOT:","those are strawberries , right , what color are they ?","pro:dem|those v:cop|be&PRES n|strawberry-PL , co|right , pro:wh|what n|color aux|be&PRES pro:sub|they ?","aux|be&PRES","v:cop|be&PRES",
"502","*MOT:","what color are those strawberries .","pro:wh|what n|color v:cop|be&PRES det|those n|strawberry-PL .","pro:wh|what","det:wh|what",
"503","*MOT:","oh you're right , the plums are blue , but what color are the strawberries ?","co|oh pro|you~v:cop|be&PRES adj|right , det|the n|plum-PL v:cop|be&PRES adj|blue , conj|but pro:wh|what n|color v:cop|be&PRES det|the n|strawberry-PL ?","pro:wh|what","det:wh|what",
"505","*MOT:","what color are those ?","pro:wh|what n|color v:cop|be&PRES pro:dem|those ?","pro:wh|what","det:wh|what",
"508","*MOT:","what color are those strawberries ?","pro:wh|what n|color v:cop|be&PRES det|those n|strawberry-PL ?","pro:wh|what","det:wh|what",
"514","*MOT:","what color are are the carrots ?","pro:wh|what n|color unk|are v:cop|be&PRES det|the n|carrot-PL ?","pro:wh|what","det:wh|what",
"514","*MOT:","what color are are the carrots ?","pro:wh|what n|color unk|are v:cop|be&PRES det|the n|carrot-PL ?","unk|are","v:cop|be&PRES",
"516","*MOT:","what color are they ?","pro:wh|what n|color v:cop|be&PRES pro:sub|they ?","pro:wh|what","det:wh|what",
"520","*MOT:","and what color is this bird ?","coord|and pro:wh|what n|color v:cop|be&3S det|this n|bird ?","pro:wh|what","det:wh|what",
"522","*MOT:","what color is the bird ?","pro:wh|what n|color v:cop|be&3S det|the n|bird ?","pro:wh|what","det:wh|what",
"525","*MOT:","these are peas , what color are the peas ?","pro:dem|these v:cop|be&PRES n|pea-PL , pro:wh|what n|color v:cop|be&PRES det|the n|pea-PL ?","pro:wh|what","det:wh|what",
"526","*MOT:","what color are those peas ?","pro:wh|what n|color v:cop|be&PRES det|those n|pea-PL ?","pro:wh|what","det:wh|what",
"530","*MOT:","what color are they ?","pro:wh|what n|color v:cop|be&PRES pro:sub|they ?","pro:wh|what","det:wh|what",
"538","*MOT:","do you know what color these peas are ?","mod|do pro|you v|know pro:wh|what n|color det|these n|pea-PL v:cop|be&PRES ?","pro:wh|what","det:wh|what",
"541","*MOT:","what color are these flowers ?","pro:wh|what n|color v:cop|be&PRES det|these n|flower-PL ?","pro:wh|what","det:wh|what",
"544","*MOT:","and do you know what these are ?","coord|and v|do pro|you v|know pro:wh|what pro:dem|these v:cop|be&PRES ?","v|do","mod|do",
"547","*MOT:","what color are the plums ?","pro:wh|what n|color v:cop|be&PRES det|the n|plum-PL ?","pro:wh|what","det:wh|what",
"549","*MOT:","they look kind of blue .","pro:sub|they v|look n|kind prep|of n|blue .","n|kind prep|of","adv|+n|kind+prep|of",
"549","*MOT:","they look kind of blue .","pro:sub|they v|look n|kind prep|of n|blue .","n|blue","adj|blue",
"550","*MOT:","that's purple though , it's dark purple .","pro:dem|that~v:cop|be&3S n|purple adv|though , pro|it~v:cop|be&3S adj|dark n|purple .","n|purple","adj|purple",
"550","*MOT:","that's purple though , it's dark purple .","pro:dem|that~v:cop|be&3S n|purple adv|though , pro|it~v:cop|be&3S adj|dark n|purple .","adj|dark","adv|dark",
"550","*MOT:","that's purple though , it's dark purple .","pro:dem|that~v:cop|be&3S n|purple adv|though , pro|it~v:cop|be&3S adj|dark n|purple .","n|purple","adj|purple",
"551","*MOT:","do you know what color this mouse is ?","mod|do pro|you v|know pro:wh|what n|color det|this n|mouse v:cop|be&3S ?","pro:wh|what","det:wh|what",
"553","*MOT:","he's not pink , he's grey .","pro:sub|he~aux|be&3S neg|not adj|pink , pro:sub|he~v:cop|be&3S adj|grey .","pro:sub|he~aux|be&3S","pro:sub|he~v:cop|be&3S",
"555","*MOT:","what color is the rabbit ?","pro:wh|what n|color v:cop|be&3S det|the n|rabbit ?","pro:wh|what","det:wh|what",
"560","*MOT:","do you know who all those people are ?","v|do pro|you v|know pro:wh|who qn|all det|those n|person&PL v:cop|be&PRES ?","v|do","mod|do",
"566","*CHI:","mommy .","adj|mom&dn-Y .","adj|mom&dn-Y","n|mommy",
"583","*MOT:","dump truck .","n|dump n|truck .","n|dump n|truck","n|+n|dump+n|truck",
"585","*MOT:","let's see if we can find a , a front loader for you .","v|let~pro:obj|us v|see conj|if pro:sub|we mod|can v|find det|a , det|a n|front n|load&dv-AGT prep|for pro|you .","n|front n|load&dv-AGT","n|+adj|front+n|loader",
"590","*CHI:","fast train , fast .","adj|fast n|train , n|fast .","n|fast","adj|fast",
"596","*MOT:","and do you see a fire engine ?","coord|and v|do pro|you v|see det|a n|fire n|engine ?","v|do","mod|do",
"596","*MOT:","and do you see a fire engine ?","coord|and v|do pro|you v|see det|a n|fire n|engine ?","n|fire n|engine","n|+n|fire+n|engine",
"602","*CHI:","dump truck ?","n|dump n|truck ?","n|dump n|truck","n|+n|dump+n|truck",
"603","*MOT:","dump truck .","n|dump n|truck .","n|dump n|truck","n|+n|dump+n|truck",
"604","*MOT:","do you see a baby carriage ?","mod|do pro|you v|see det|a adj|babe&dn-Y n|carriage ?","adj|babe&dn-Y","adj|baby",
"614","*MOT:","there's a school bus , that's right .","adv:loc|there~v:cop|be&3S det|a n|school n|bus , pro:dem|that~v:cop|be&3S adj|right .","adv:loc|there~v:cop|be&3S","pro:exist~v:cop|be&3S",
,,,,,,
"614","*MOT:","there's a school bus , that's right .","adv:loc|there~v:cop|be&3S det|a n|school n|bus , pro:dem|that~v:cop|be&3S adj|right .","n|school n|bus","n|+n|school+n|bus",
"627","*MOT:","no this one's on the fence , but there's a bird in the tree , that's a cardinal .","co|no det|this pro:indef|one~v:cop|be&3S prep|on det|the n|fence , conj|but adv:loc|there~v:cop|be&3S det|a n|bird prep|in det|the n|tree , pro:dem|that~v:cop|be&3S det|a n|cardinal .","adv:loc|there~v:cop|be&3S","pro:exist~v:cop|be&3S",
"640","*CHI:","black telephone .","n|black n|telephone .","n|black","adj|black",
"663","*MOT:","in in the door ?","unk|in prep|in det|the n|door ?","unk|in","prep|in",
"664","*MOT:","I'm not sure where your keys are .","pro:sub|I~aux|be&1S neg|not adj|sure rel|where pro:poss:det|your n|key-PL v:cop|be&PRES .","pro:sub|I~aux|be&1S","pro:sub|I~v:cop|be&1S",
"669","*MOT:","I'm sorry I brought it up , Child , because I'm not sure where your keys are .","pro:sub|I~v:cop|be&1S adj|sorry pro:sub|I v|bring&PAST pro|it prep|up , n:prop|Child , conj|because pro:sub|I~v:cop|be&1S neg|not adj|sure rel|where pro:poss:det|your n|key-PL v:cop|be&PRES .","prep|up","adv:loc|up",
"679","*MOT:","give mommy back those keys please .","v|give adj|mom&dn-Y adv:loc|back det|those n|key-PL co|please .","adj|mom&dn-Y","n|mommy",
"691","*CHI:","bye bye mommy .","co|bye co|bye adj|mom&dn-Y .","adj|mom&dn-Y","n|mommy",
"692","*CHI:","bye bye mommy .","co|bye co|bye adj|mom&dn-Y .","adj|mom&dn-Y","n|mommy",
"694","*CHI:","bye bye mommy .","co|bye co|bye adj|mom&dn-Y .","adj|mom&dn-Y","n|mommy",
"695","*CHI:","bye bye mommy .","co|bye co|bye adj|mom&dn-Y .","adj|mom&dn-Y","n|mommy",
"706","*CHI:","mommy .","adj|mom&dn-Y .","adj|mom&dn-Y","n|mommy",
"717","*CHI:","that door open .","pro:dem|that n|door adj|open .","pro:dem|that","det|that",
"718","*CHI:","that door open .","pro:dem|that n|door adj|open .","pro:dem|that","det|that",
"719","*MOT:","that door open ?","pro:dem|that n|door adj|open ?","pro:dem|that","det|that",
"734","*MOT:","I don't think you can leave them in the door and take them out at the same time .","pro:sub|I mod|do~neg|not v|think pro|you mod|can v|leave pro:obj|them prep|in det|the n|door coord|and v|take pro:obj|them n|out prep|at det|the adj|same n|time .","n|out","adv:loc|out",
"736","*MOT:","you took them out , okay .","pro|you v|take&PAST pro:obj|them n|out , co|okay .","n|out","adv:loc|out",
