Line,Speaker,Utterance,Tags,Incorrect Tag,Correct Tag,Notes
0,*MOT:,what should we color ?,pro:wh|what mod|should pro:sub|we n|color ?,n|color,v|color,
6,*MOT:,you gonna use the white paper or the colored paper ?,pro|you part|go-PROG~inf|to v|use det|the n|white n|paper coord|or det|the adj|colored n|paper ?,n|white,adj|white,
9,*CHI:,white paper .,n|white n|paper .,n|white,adj|white,
13,*CHI:,now I want this for writing .,adv|now pro:sub|I v|want pro:dem|this prep|for part|write-PROG .,part|write-PROG,n:gerund|write-PROG,Unsure.
16,*CHI:,"now , uh , this , this for writing .","adv|now , unk|uh , det|this , pro:dem|this prep|for part|write-PROG .",det|this,pro:dem|this,
16,*CHI:,"now , uh , this , this for writing .","adv|now , unk|uh , det|this , pro:dem|this prep|for part|write-PROG .",part|write-PROG,n:gerund|write-PROG,Unsure.
18,*CHI:,this for writing .,pro:dem|this prep|for part|write-PROG .,part|write-PROG,n:gerund|write-PROG,Unsure.
24,*CHI:,this pushes ?,det|this n|push-PL ?,det|this,pro:dem|this,
24,*CHI:,this pushes ?,det|this n|push-PL ?,n|push-PL,v|push-3S,
31,*MOT:,say blue !,v|say n|blue !,n|blue,adj|blue,
35,*MOT:,"blue , okay .","n|blue , co|okay .",n|blue,adj|blue,
36,*MOT:,some of these he gets confused .,pro:indef|some prep|of pro:dem|these pro:sub|he v|get-3S part|confuse-PERF .,pro:indef|some,qn|some,
49,*MOT:,"white on white , best kinda picture .","n|white prep|on n|white , v|best adv|kinda n|picture .",n|white,adj|white,
49,*MOT:,"white on white , best kinda picture .","n|white prep|on n|white , v|best adv|kinda n|picture .",n|white,adj|white,Unsure--after a preposition?
49,*MOT:,"white on white , best kinda picture .","n|white prep|on n|white , v|best adv|kinda n|picture .",v|best,adj|best,
49,*MOT:,"white on white , best kinda picture .","n|white prep|on n|white , v|best adv|kinda n|picture .",adv|kinda,n:kind~prep|of,
51,*MOT:,no one can argue with it .,co|no det:num|one n|can v|argue prep|with pro|it .,co|no,qn|no,
51,*MOT:,no one can argue with it .,co|no det:num|one n|can v|argue prep|with pro|it .,det:num|one,pro:indef|one,
51,*MOT:,no one can argue with it .,co|no det:num|one n|can v|argue prep|with pro|it .,n|can,mod|can,
56,*MOT:,try coloring with the pink one .,n|try part|color-PROG prep|with det|the adj|pink pro:indef|one .,n|try,v|try,
58,*MOT:,should we do a pink and a purple ?,mod|should pro:sub|we v|do det|a adj|pink coord|and det|a n|purple ?,n|purple,adj|purple,"Even though ""purple"" has a determiner here, I think the noun is ellided. As in, the purple (crayon)."
59,*MOT:,that looks nice together .,pro:dem|that n|look-PL adj|nice adv|together .,n|look-PL,v|look-3S,
68,*MOT:,"here , try it on green , or orange .","adv:loc|here , v|try pro|it adv|on v|green , coord|or n|orange .",adv|on,prep|on,"On green (paper) is implied, so a prepositional tag is more accurate."
68,*MOT:,"here , try it on green , or orange .","adv:loc|here , v|try pro|it adv|on v|green , coord|or n|orange .",v|green,adj|green,
68,*MOT:,"here , try it on green , or orange .","adv:loc|here , v|try pro|it adv|on v|green , coord|or n|orange .",n|orange,adj|orange,
75,*CHI:,a t@l .,det|a n:let|t .,n:let|t,n:let|t,"Left tag, but unsure--maybe a transcription error?"
76,*MOT:,a t@l ?,det|a n:let|t ?,n:let|t,n:let|t,Same as above.
77,*MOT:,"yeah , because Tziporah's always very involved in writing letters of the alphabet .","co|yeah , conj|because n:prop|Tziporah~v:cop|be&3S adv|always adv:int|very part|involve-PERF adv:loc|in part|write-PROG n|letter-PL prep|of det|the n|alphabet .",n:prop|Tziporah~v:cop|be&3S,n:prop|Tziporah~aux|be&3S,An auxiliary because followed by a participle?
80,*MOT:,orange on orange .,n|orange prep|on n|orange .,n|orange,adj|orange,
80,*MOT:,orange on orange .,n|orange prep|on n|orange .,n|orange,adj|orange,
84,*CHI:,I wanna colored .,pro:sub|I v|want~inf|to adj|colored .,adj|colored,v|color-PAST,"I believe the child is saying ""I want to color"", but it is ambiguous because it is an incorrect grammatical construction."
86,*MOT:,"okay , try green on green , by all means .","co|okay , n|try v|green prep|on v|green , adv|by qn|all adj|mean-PL .",n|try,v|try,
86,*MOT:,"okay , try green on green , by all means .","co|okay , n|try v|green prep|on v|green , adv|by qn|all adj|mean-PL .",v|green,adj|green,
86,*MOT:,"okay , try green on green , by all means .","co|okay , n|try v|green prep|on v|green , adv|by qn|all adj|mean-PL .",v|green,adj|green,Same issue as before--noun or adjective?
86,*MOT:,"okay , try green on green , by all means .","co|okay , n|try v|green prep|on v|green , adv|by qn|all adj|mean-PL .",adv|by,prep|by,
86,*MOT:,"okay , try green on green , by all means .","co|okay , n|try v|green prep|on v|green , adv|by qn|all adj|mean-PL .",adj|mean-PL,n|mean-PL,
87,*CHI:,does this work ?,mod|do&3S det|this n|work ?,det|this,pro:dem|this,
87,*CHI:,does this work ?,mod|do&3S det|this n|work ?,n|work,v|work,
88,*MOT:,sure .,adj|sure .,adj|sure,co|sure,
89,*CHI:,"this , and match with the green .","pro:dem|this , coord|and n|match prep|with det|the adj|green .",n|match,v|match,
90,*MOT:,they have_to match .,pro:sub|they mod:aux|have_to v|match .,mod:aux|have_to,aux|have~inf|to,Unsure--transcription is strange.
91,*MOT:,his sister is fanatic about matching .,pro:poss:det|his n|sister v:cop|be&3S n|fanatic prep|about n:gerund|match-PROG .,n|fanatic,adj|fanatic,"Used here as an adjective, although the correct adjectival form is ""fanatical""."
93,*MOT:,doesn't really show .,mod|do&3S~neg|not adv:int|really n|show .,n|show,v|show,
100,*MOT:,there's no name on it .,adv:loc|there~v:cop|be&3S qn|no n|name prep|on pro|it .,adv:loc|there~v:cop|be&3S,pro:exist|there~v:cop|be&3S,
101,*INV:,flesh .,n|flesh .,n|flesh,n|flesh,"Did not change tag, but I think this case is similar to that of ""baby bird"". The previous discussion is about crayon names; in the context of ""a flesh crayon"" it seems that ""flesh"" would be an adjective."
102,*MOT:,I remember these weird colors when we were growing up of crayons .,pro:sub|I v|remember det|these adj|weird n|color-PL conj|when pro:sub|we aux|be&PAST part|grow-PROG prep|up prep|of n|crayon-PL .,prep|up,adv:loc|up,
107,*INV:,"it is flesh , yeah .","pro|it v:cop|be&3S n|flesh , co|yeah .",n|flesh,n|flesh,"Did not change tag, but pulled out to highlight same issue as above."
108,*MOT:,"they had these weird names like , I don't know , Begonia blue , and , and , uh , finicky flesh .","pro:sub|they v|have&PAST det|these adj|weird n|name-PL prep|like , pro:sub|I mod|do~neg|not v|know , n:prop|Begonia n|blue , coord|and , coord|and , unk|uh , adj|finicky n|flesh .",n|blue,adj|blue,Unsure.
108,*MOT:,"they had these weird names like , I don't know , Begonia blue , and , and , uh , finicky flesh .","pro:sub|they v|have&PAST det|these adj|weird n|name-PL prep|like , pro:sub|I mod|do~neg|not v|know , n:prop|Begonia n|blue , coord|and , coord|and , unk|uh , adj|finicky n|flesh .",n|flesh,adj|flesh,Unsure.
109,*MOT:,so funny .,adv:int|so adj|fun&dn-Y .,adj|fun&dn-Y,adj|funny,"""Funny"" seems to have a different meaning than that that would be derived from an adjectival form of ""fun""."
110,*MOT:,"but I distinctly remember seeing on the crayons , flesh , and thinking that was just hideous , even if it really was flesh colored , to actually put that on the crayon .","conj|but pro:sub|I adv|distinct&dadj-LY v|remember part|see-PROG prep|on det|the n|crayon-PL , n|flesh , coord|and adj:part|think-PROG pro:dem|that v:cop|be&PAST&13S adv:int|just adj|hideous , adj|even conj|if pro|it adv|real&dadj-LY v:cop|be&PAST&13S n|flesh adj|colored , inf|to adv|actual&dadj-LY v|put&ZERO pro:dem|that prep|on det|the n|crayon .",n|flesh,adj|flesh,Unsure.
110,*MOT:,"but I distinctly remember seeing on the crayons , flesh , and thinking that was just hideous , even if it really was flesh colored , to actually put that on the crayon .","conj|but pro:sub|I adv|distinct&dadj-LY v|remember part|see-PROG prep|on det|the n|crayon-PL , n|flesh , coord|and adj:part|think-PROG pro:dem|that v:cop|be&PAST&13S adv:int|just adj|hideous , adj|even conj|if pro|it adv|real&dadj-LY v:cop|be&PAST&13S n|flesh adj|colored , inf|to adv|actual&dadj-LY v|put&ZERO pro:dem|that prep|on det|the n|crayon .",adj:part|think-PROG,part|think-PROG,
110,*MOT:,"but I distinctly remember seeing on the crayons , flesh , and thinking that was just hideous , even if it really was flesh colored , to actually put that on the crayon .","conj|but pro:sub|I adv|distinct&dadj-LY v|remember part|see-PROG prep|on det|the n|crayon-PL , n|flesh , coord|and adj:part|think-PROG pro:dem|that v:cop|be&PAST&13S adv:int|just adj|hideous , adj|even conj|if pro|it adv|real&dadj-LY v:cop|be&PAST&13S n|flesh adj|colored , inf|to adv|actual&dadj-LY v|put&ZERO pro:dem|that prep|on det|the n|crayon .",adj|even conj|if,conj:subor|+adv|even+conj|if,"""Even if"" functions as a subordinating conjunction--how to tag?"
110,*MOT:,"but I distinctly remember seeing on the crayons , flesh , and thinking that was just hideous , even if it really was flesh colored , to actually put that on the crayon .","conj|but pro:sub|I adv|distinct&dadj-LY v|remember part|see-PROG prep|on det|the n|crayon-PL , n|flesh , coord|and adj:part|think-PROG pro:dem|that v:cop|be&PAST&13S adv:int|just adj|hideous , adj|even conj|if pro|it adv|real&dadj-LY v:cop|be&PAST&13S n|flesh adj|colored , inf|to adv|actual&dadj-LY v|put&ZERO pro:dem|that prep|on det|the n|crayon .",n|flesh,adj|flesh,Unsure.
