"Line","Speaker","Utterance","Tags","Incorrect Tag","Correct Tag","Notes"
5,"*INV:","I have a book that's sort of like your book only smaller with lots of pictures in it .","pro:sub|I v|have det|a n|book pro:dem|that~v:cop|be&3S n|sort prep|of co|like pro:poss:det|your n|book qn|only adj|small-CP prep|with n|lot-PL prep|of n|picture-PL prep|in pro|it .","pro:dem|that~v:cop|be&3S","rel|that~v:cop|be&3S",
5,"*INV:","I have a book that's sort of like your book only smaller with lots of pictures in it .","pro:sub|I v|have det|a n|book pro:dem|that~v:cop|be&3S n|sort prep|of co|like pro:poss:det|your n|book qn|only adj|small-CP prep|with n|lot-PL prep|of n|picture-PL prep|in pro|it .","co|like","prep|like","Not sure about this at all, but can't think of what else it could be."
5,"*INV:","I have a book that's sort of like your book only smaller with lots of pictures in it .","pro:sub|I v|have det|a n|book pro:dem|that~v:cop|be&3S n|sort prep|of co|like pro:poss:det|your n|book qn|only adj|small-CP prep|with n|lot-PL prep|of n|picture-PL prep|in pro|it .","qn|only","conj|only","Not sure. My reasoning was that I could replace only with 'but' in this sentence and ones like ""I went to the store, only I didn't find the eggs"""
30,"*INV:","I think there's a lot of artistic license taken with porcupines .","pro:sub|I v|think adv:loc|there~v:cop|be&3S det|a n|lot prep|of adj|artistic n|license part|take&PERF prep|with n|porcupine-PL .","adv:loc|there~v:cop|be&3S","pro:exist|there~v:cop|be&3S",
41,"*MOT:","it's not a bunny , cause lookit it has that trunk .","pro|it~v:cop|be&3S neg|not det|a n|bunny , n|cause int|+int|look+int|it pro|it v|have&3S det|that n|trunk .","n|cause","conj|cause","Is shortened form of because"
43,"*MOT:","see that big long trunk ?","v|see pro:dem|that adj|big adj|long n|trunk ?","pro:dem|that","det|that",
46,"*MOT:","it's a funny looking elephant .","pro|it~v:cop|be&3S det|a adj|fun&dn-Y part|look-PROG n|elephant .","adj|fun&dn-Y part|look-PROG","adj|+adj|funny+adj|looking","Not sure"
48,"*MOT:","boy , Investigator has some nice toys .","n|boy , n:prop|Investigator v|have&3S qn|some adj|nice n|toy-PL .","n|boy","co|boy",
50,"*MOT:","he's really soft , isn't he ?","pro:sub|he~aux|be&3S adv|real&dadj-LY adj|soft , v:cop|be&3S~neg|not pro:sub|he ?","pro:sub|he~aux|be&3S","pro:sub|he~v:cop|be&3S",
63,"*MOT:","Child's actually baby sitting for Edna .","n:prop|Child~v:cop|be&3S adv|actual&dadj-LY n|baby part|sit-PROG prep|for n:prop|Edna .","n|baby part|sit-PROG","part|babysit-PROG",
63,"*MOT:","Child's actually baby sitting for Edna .","n:prop|Child~v:cop|be&3S adv|actual&dadj-LY n|baby part|sit-PROG prep|for n:prop|Edna .","n:prop|Child~v:cop|be&3S","n:prop|Child~aux|be&3S",
64,"*MOT:","who does Edna belong to ?","pro:wh|who mod|do&3S n:prop|Edna v|belong inf|to ?","inf|to","prep|to",
68,"*CHI:","her upstairs .","pro:obj|her adv:loc|upstairs .","pro:obj|her","pro:subj|her","Her' is being used as a subject here."
69,"*INV:","is she typing ?","aux|be&3S pro:sub|she n:gerund|type-PROG ?","n:gerund|type-PROG","part|type-PROG",
70,"*MOT:","no , who's typing ?","co|no , pro:wh|who~v:cop|be&3S n:gerund|type-PROG ?","pro:wh|who~v:cop|be&3S","pro:wh|who~aux|be&3S",
70,"*MOT:","no , who's typing ?","co|no , pro:wh|who~v:cop|be&3S n:gerund|type-PROG ?","n:gerund|type-PROG","part|type-PROG",
71,"*CHI:","mommy .","adj|mom&dn-Y .","adj|mom&dn-Y","n|mommy",
72,"*MOT:","no , I was typing .","co|no , pro:sub|I v:cop|be&PAST&13S n:gerund|type-PROG .","v:cop|be&PAST&13S","aux|be&PAST&13S",
72,"*MOT:","no , I was typing .","co|no , pro:sub|I v:cop|be&PAST&13S n:gerund|type-PROG .","n:gerund|type-PROG","part|type-PROG",
73,"*MOT:","who's up there typing now ?","pro:wh|who~v:cop|be&3S adv:loc|up adv:loc|there n:gerund|type-PROG adv|now ?","pro:wh|who~v:cop|be&3S","pro:wh|who~aux|be&3S",
73,"*MOT:","who's up there typing now ?","pro:wh|who~v:cop|be&3S adv:loc|up adv:loc|there n:gerund|type-PROG adv|now ?","n:gerund|type-PROG","part|type-PROG",
74,"*CHI:","daddy .","adj|dad&dn-Y .","adj|dad&dn-Y","n|daddy",
75,"*MOT:","yeah , cause where's Tracy ?","co|yeah , n|cause adv:wh|where~v:cop|be&3S n:prop|Tracy ?","n|cause","conj|cause",
100,"*MOT:","this is one of Child's favorite books .","pro:dem|this v:cop|be&3S det:num|one prep|of n:prop|Child~poss|s n|favorite n|book-PL .","n|favorite","adj|favorite",
103,"*MOT:","lookit , that looks like em .","int|+int|look+int|it , det|that n|look-PL prep|like pro:obj|them .","det|that","pro:dem|that",
103,"*MOT:","lookit , that looks like em .","int|+int|look+int|it , det|that n|look-PL prep|like pro:obj|them .","n|look-PL","v|look-3S",
121,"*CHI:","guck .","int|guck .","int|guck","n|guck","Transcription error? child is obviously trying to say ""duck"""
124,"*INV:","now that Lassie's gone they don't know what collies are .","adv|now rel|that n:prop|Lassie~aux|be&3S part|go&PERF pro:sub|they mod|do~neg|not v|know pro:wh|what n|collie-PL v:cop|be&PRES .","rel|that","NOT SURE","Not sure"
126,"*MOT:","now basically you'd just like her to keep talking ?","adv|now adv|basic&dadj-AL-LY pro|you~mod|genmod adj|just co|like pro:obj|her inf|to v|keep n:gerund|talk-PROG ?","adj|just","adv:int|just",
126,"*MOT:","now basically you'd just like her to keep talking ?","adv|now adv|basic&dadj-AL-LY pro|you~mod|genmod adj|just co|like pro:obj|her inf|to v|keep n:gerund|talk-PROG ?","co|like","v|like",
127,"*INV:","yeah , sure .","co|yeah , adj|sure .","adj|sure","co|sure",
138,"*MOT:","it kind of looks like Colleen I guess .","pro|it n|kind prep|of n|look-PL prep|like n:prop|Colleen pro:sub|I n|guess .","n|guess","v|guess",
150,"*MOT:","do you want to tell her about some of these other pictures ?","mod|do pro|you v|want inf|to v|tell pro:obj|her prep|about qn|some prep|of pro:dem|these qn|other n|picture-PL ?","pro:dem|these","det|these",
150,"*MOT:","do you want to tell her about some of these other pictures ?","mod|do pro|you v|want inf|to v|tell pro:obj|her prep|about qn|some prep|of pro:dem|these qn|other n|picture-PL ?","qn|other","adj|other",
160,"*MOT:","what else is in there ?","pro:wh|what post|else v:cop|be&3S adv:loc|in adv:loc|there ?","adv:loc|in","prep|in",
161,"*CHI:","daddy .","adj|dad&dn-Y .","adj|dad&dn-Y","n|daddy",
162,"*MOT:","daddy , yeah .","adj|dad&dn-Y , co|yeah .","adj|dad&dn-Y","n|daddy",
168,"*MOT:","that's her old boy friend .","pro:dem|that~v:cop|be&3S pro:poss:det|her adj|old n|boy n|friend .","n|boy n|friend","n|+n|boy+n|friend",
174,"*MOT:","I hope you're not related to him .","pro:sub|I n|hope pro|you~aux|be&PRES neg|not part|relate-PERF prep|to pro:obj|him .","n|hope","v|hope",
176,"*MOT:","oh good .","co|oh adj|good .","adj|good","co|good",
179,"*MOT:","what's out there ?","pro:wh|what~v:cop|be&3S adv:loc|out adv:loc|there ?","adv:loc|out","prep|out","Not sure"
184,"*MOT:","in here ?","adv:loc|in adv:loc|here ?","adv:loc|in","prep|in",
185,"*MOT:","I don't even know if there is a clock .","pro:sub|I mod|do~neg|not adv:int|even v|know conj|if adv:loc|there v:cop|be&3S det|a n|clock .","adv:loc|there","pro:exist|there",
190,"*MOT:","what is he to you ?","pro:wh|what aux|be&3S pro:sub|he prep|to pro|you ?","aux|be&3S","v:cop|be&3S",
197,"*MOT:","what is he ?","pro:wh|what aux|be&3S pro:sub|he ?","aux|be&3S","v:cop|be&3S",
201,"*MOT:","what else is he ?","pro:wh|what post|else aux|be&3S pro:sub|he ?","aux|be&3S","v:cop|be&3S",
221,"*INV:","were you that small Child ?","aux|be&PAST pro|you det|that adj|small n:prop|Child ?","aux|be&PAST","v:cop|be&PAST",
221,"*INV:","were you that small Child ?","aux|be&PAST pro|you det|that adj|small n:prop|Child ?","det|that","adv:int|that",
227,"*MOT:","no , first it was Erli's , then it was Child's , and now it's Justin's .","co|no , adv|first pro|it v:cop|be&PAST&13S n:prop|Erli~poss|s , adv:tem|then pro|it v:cop|be&PAST&13S n:prop|Child~poss|s , coord|and adv|now pro|it~v:cop|be&3S n:prop|Justin~poss|s .","adv|first","adv:temp|first",
232,"*MOT:","that's a giant Christmas tree behind you .","pro:dem|that~v:cop|be&3S det|a n|giant n:prop|Christmas n|tree prep|behind pro|you .","n:prop|Christmas","adj|Christmas",
233,"*MOT:","and when we go to the mall Saturday , where you're gonna ride on the train , you're gonna see that great big tree again .","coord|and conj|when pro:sub|we v|go prep|to det|the n|mall n:prop|Saturday , adv:wh|where pro|you~aux|be&PRES part|go-PROG~inf|to v|ride prep|on det|the n|train , pro|you~aux|be&PRES part|go-PROG~inf|to v|see pro:dem|that adj|great adj|big n|tree adv|again .","adv:wh|where","rel|where",
233,"*MOT:","and when we go to the mall Saturday , where you're gonna ride on the train , you're gonna see that great big tree again .","coord|and conj|when pro:sub|we v|go prep|to det|the n|mall n:prop|Saturday , adv:wh|where pro|you~aux|be&PRES part|go-PROG~inf|to v|ride prep|on det|the n|train , pro|you~aux|be&PRES part|go-PROG~inf|to v|see pro:dem|that adj|great adj|big n|tree adv|again .","pro:dem|that","det|that",
243,"*CHI:","daddy downstairs .","n|daddy n|downstairs .","n|downstairs","adv:loc|downstairs",
244,"*MOT:","I don't think anybody's upstairs , cause I don't think Tracy's home from school yet .","pro:sub|I mod|do~neg|not v|think pro:indef|anybody~v:cop|be&3S adj|upstairs , n|cause pro:sub|I mod|do~neg|not v|think n:prop|Tracy~v:cop|be&3S n|home prep|from n|school adv|yet .","adj|upstairs","adv:loc|upstairs",
244,"*MOT:","I don't think anybody's upstairs , cause I don't think Tracy's home from school yet .","pro:sub|I mod|do~neg|not v|think pro:indef|anybody~v:cop|be&3S adj|upstairs , n|cause pro:sub|I mod|do~neg|not v|think n:prop|Tracy~v:cop|be&3S n|home prep|from n|school adv|yet .","n|cause","conj|cause",
245,"*MOT:","here you guys are getting big .","adv:loc|here pro|you n|guy-PL aux|be&PRES part|get-PROG adj|big .","adv:loc|here","co|here",
246,"*MOT:","what's that funny face .","pro:wh|what~v:cop|be&3S pro:dem|that adj|fun&dn-Y n|face .","pro:dem|that","det|that",
254,"*MOT:","that's Sarah and Child when you were little babies , before you could walk or talk or dance .","pro:dem|that~v:cop|be&3S n:prop|Sarah coord|and n:prop|Child conj|when pro|you v:cop|be&PAST adj|little n|baby-PL , prep|before pro|you mod|could v|walk coord|or n|talk coord|or n|dance .","n|talk","v|talk",
254,"*MOT:","that's Sarah and Child when you were little babies , before you could walk or talk or dance .","pro:dem|that~v:cop|be&3S n:prop|Sarah coord|and n:prop|Child conj|when pro|you v:cop|be&PAST adj|little n|baby-PL , prep|before pro|you mod|could v|walk coord|or n|talk coord|or n|dance .","n|dance","v|dance",
255,"*MOT:","let's see xxx special picture of somebody .","v|let~pro:obj|us v|see unk|xxx n|special n|picture prep|of pro:indef|somebody .","n|special","adj|special",
260,"*MOT:","you've had that since you were a little baby too .","pro|you~aux|have v|have&PAST adv:int|that prep|since pro|you v:cop|be&PAST det|a adj|little n|baby post|too .","adv:int|that","pro:dem|that",
264,"*MOT:","you're almost sleeping , but your eyes are still open .","pro|you~v:cop|be&PRES adv|almost part|sleep-PROG , conj|but pro:poss:det|your n|eye-PL v:cop|be&PRES adj|still adj|open .","adj|still","adv|still",
265,"*MOT:","is there a bigger Easter bunny in here ?","v:cop|be&3S adv:loc|there det|a adj|big-CP n:prop|Easter n|bunny adv:loc|in adv:loc|here ?","adv:loc|there","pro:exist|there",
265,"*MOT:","is there a bigger Easter bunny in here ?","v:cop|be&3S adv:loc|there det|a adj|big-CP n:prop|Easter n|bunny adv:loc|in adv:loc|here ?","adv:loc|in","prep|in",
266,"*MOT:","look at that , an Easter bonnet .","v|look prep|at pro:dem|that , det|a n:prop|Easter n|bonnet .","n:prop|Easter","adj|Easter",
268,"*MOT:","and your red dress .","coord|and pro:poss:det|your n|red n|dress .","n|red","adj|red",
285,"*MOT:","wait , show Investigator .","v|wait , n|show n:prop|Investigator .","n|show","v|show",
298,"*MOT:","that's when you and Jacob first met .","pro:dem|that~v:cop|be&3S adv:wh|when pro|you coord|and n:prop|Jacob adj|first v|meet&PAST .","adj|first","adv|first",
309,"*INV:","okay , I'll hang on to it .","co|okay , pro:sub|I~mod|will v|hang prep|on prep|to pro|it .","prep|on prep|to","prep|onto","Onto was coded as one word in the previous sentence, but two here."
310,"*INV:","I'll give it back before I go though .","pro:sub|I~mod|will v|give pro|it n|back prep|before pro:sub|I v|go adv|though .","n|back","adv:loc|back",
319,"*CHI:","in there .","adv:loc|in adv:loc|there .","adv:loc|in","prep|in",
321,"*MOT:","where are you putting that money ?","adv:wh|where v:cop|be&PRES pro|you n:gerund|put-PROG det|that n|money ?","v:cop|be&PRES","aux|be&PRES",
321,"*MOT:","where are you putting that money ?","adv:wh|where v:cop|be&PRES pro|you n:gerund|put-PROG det|that n|money ?","n:gerund|put-PROG","part|put-PROG",
322,"*CHI:","right in there .","adv|right adv:loc|in adv:loc|there .","adv:loc|in","prep|in",
323,"*MOT:","in where ?","adv:loc|in adv:wh|where ?","adv:loc|in","prep|in",
324,"*CHI:","in there .","adv:loc|in adv:loc|there .","adv:loc|in","prep|in",
332,"*MOT:","oh , you're teasing us .","co|oh , pro|you~v:cop|be&PRES n:gerund|tease-PROG pro:obj|us .","pro|you~v:cop|be&PRES","pro|you~aux|be&PRES",
332,"*MOT:","oh , you're teasing us .","co|oh , pro|you~v:cop|be&PRES n:gerund|tease-PROG pro:obj|us .","n:gerund|tease-PROG","part|tease-PROG",
333,"*MOT:","are you giving us a hard time ?","v:cop|be&PRES pro|you part|give-PROG pro:obj|us det|a adj|hard n|time ?","v:cop|be&PRES","aux|be&PRES",
336,"*CHI:","watch out .","n|watch n|out .","n|watch","v|watch",
336,"*CHI:","watch out .","n|watch n|out .","n|out","adv:loc|out",
337,"*MOT:","you watch out .","pro|you v|watch n|out .","n|out","adv:loc|out",
341,"*MOT:","that's called a cement mixer .","pro:dem|that~aux|be&3S v|call-PAST det|a n|cement n|mix&dv-AGT .","n|cement n|mix&dv-AGT","n|+n|cement+n|mix&dv-AGT",
346,"*INV:","Jacob called it a cement truck .","n:prop|Jacob v|call-PAST pro|it det|a n|cement n|truck .","n|cement n|truck","n|+n|cement+n|truck",
353,"*MOT:","I found this .","pro:sub|I v|find&PAST det|this .","det|this","pro:dem|this",
362,"*MOT:","oh , was that an accident ?","co|oh , aux|be&PAST&13S pro:dem|that det|a n|accident ?","aux|be&PAST&13S","v:cop|be&PAST&13S",
364,"*MOT:","are you teasing ?","aux|be&PRES pro|you n:gerund|tease-PROG ?","n:gerund|tease-PROG","part|tease-PROG",
365,"*MOT:","I think you're teasing .","pro:sub|I v|think pro|you~v:cop|be&PRES n:gerund|tease-PROG .","pro|you~v:cop|be&PRES","pro|you~aux|be&PRES",
365,"*MOT:","I think you're teasing .","pro:sub|I v|think pro|you~v:cop|be&PRES n:gerund|tease-PROG .","n:gerund|tease-PROG","part|tease-PROG",
369,"*INV:","yeah , that's my tape recorder , and when you make loud noises , the light goes on and off .","co|yeah , pro:dem|that~v:cop|be&3S pro:poss:det|my n|tape n|record&dv-AGT , coord|and conj|when pro|you v|make adj|loud n|noise-PL , det|the n|light v|go-3S adv:loc|on coord|and adv|off .","n|tape n|record&dv-AGT","n|+n|tape+n|recorder",
369,"*INV:","yeah , that's my tape recorder , and when you make loud noises , the light goes on and off .","co|yeah , pro:dem|that~v:cop|be&3S pro:poss:det|my n|tape n|record&dv-AGT , coord|and conj|when pro|you v|make adj|loud n|noise-PL , det|the n|light v|go-3S adv:loc|on coord|and adv|off .","adv|off","adv:loc|off","Or is it a prep?"
370,"*INV:","see ?","co|see ?","co|see","v|see",
382,"*INV:","it's hard to keep up with these things .","pro|it~v:cop|be&3S adj|hard inf|to v|keep prep|up prep|with det|these n|thing-PL .","prep|up","adv:loc|up",
396,"*MOT:","cause you know mommy doesn't want Playdough in the house .","v|cause pro|you v|know n|mommy mod|do&3S~neg|not v|want n:prop|Playdough prep|in det|the n|house .","v|cause","conj|cause",
401,"*CHI:","it on there too .","pro|it adv:loc|on adv:loc|there post|too .","adv:loc|on","prep|on",
404,"*MOT:","we're never sure how clear she is .","pro:sub|we~aux|be&PRES adv|never adj|sure adv:wh|how n|clear pro:sub|she v:cop|be&3S .","pro:sub|we~aux|be&PRES","pro:sub|we~v:cop|be&PRES",
404,"*MOT:","we're never sure how clear she is .","pro:sub|we~aux|be&PRES adv|never adj|sure adv:wh|how n|clear pro:sub|she v:cop|be&3S .","n|clear","adj|clear",
405,"*INV:","yeah , she's actually pretty clear .","co|yeah , pro:sub|she~aux|be&3S adv|actual&dadj-LY adv:int|pretty adv|clear .","pro:sub|she~aux|be&3S","pro:sub|she~v:cop|be&3S",
405,"*INV:","yeah , she's actually pretty clear .","co|yeah , pro:sub|she~aux|be&3S adv|actual&dadj-LY adv:int|pretty adv|clear .","adv|clear","adj|clear",
406,"*INV:","I also have been seeing two year olds for four years now so xxx .","pro:sub|I adv|also v|have aux|be&PERF part|see-PROG det:num|two n|year adj|old-PL prep|for det:num|four n|year-PL adv|now co|so unk|xxx .","adj|old-PL","n|old-PL",
411,"*CHI:","I'm , going over there .","pro:sub|I~aux|be&1S , part|go-PROG adv:loc|over adv:loc|there .","adv:loc|over","prep|over",
413,"*MOT:","wow , you're really making that light flash on and off .","co|wow , pro|you~v:cop|be&PRES adv|real&dadj-LY part|make-PROG det|that n|light n|flash adv:loc|on coord|and adv|off .","pro|you~v:cop|be&PRES","pro:you~aux|be&PRES",
413,"*MOT:","wow , you're really making that light flash on and off .","co|wow , pro|you~v:cop|be&PRES adv|real&dadj-LY part|make-PROG det|that n|light n|flash adv:loc|on coord|and adv|off .","n|flash","v|flash",
413,"*MOT:","wow , you're really making that light flash on and off .","co|wow , pro|you~v:cop|be&PRES adv|real&dadj-LY part|make-PROG det|that n|light n|flash adv:loc|on coord|and adv|off .","adv|off","adv:loc|off",
422,"*MOT:","quick , come on , reach , reach .","adv|quick , v|come prep|on , n|reach , n|reach .","prep|on","adv:loc|on",
422,"*MOT:","quick , come on , reach , reach .","adv|quick , v|come prep|on , n|reach , n|reach .","n|reach","v|reach",
422,"*MOT:","quick , come on , reach , reach .","adv|quick , v|come prep|on , n|reach , n|reach .","n|reach","v|reach",
423,"*MOT:","go ahead , reach as far as you can .","v|go adv|ahead , n|reach prep|as adv|far prep|as pro|you mod|can .","n|reach","v|reach",
424,"*MOT:","reach !","n|reach !","n|reach","v|reach",
425,"*MOT:","stretch !","n|stretch !","n|stretch","v|stretch",
430,"*CHI:","I put it on there .","pro:sub|I v|put&ZERO pro|it adv:loc|on adv:loc|there .","adv:loc|on","prep|on",
434,"*MOT:","hey , hey , hey , Child , you never touch the plug cause it could hurt you .","co|hey , co|hey , co|hey , n:prop|Child , pro|you adv|never v|touch det|the n|plug v|cause pro|it mod|could v|hurt&ZERO pro|you .","v|cause","conj|cause",
436,"*CHI:","I wanna go over there .","pro:sub|I v|want~inf|to v|go adv:loc|over adv:loc|there .","adv:loc|over","prep|over",
439,"*MOT:","that was good turning around .","pro:dem|that v:cop|be&PAST&13S adj|good part|turn-PROG adv:loc|around .","part|turn-PROG","n:gerune|turn-PROG",
442,"*CHI:","I put it on my finger ginger .","pro:sub|I v|put&ZERO pro|it prep|on pro:poss:det|my n|finger n|ginger .","n|ginger",,"Some sort of transcription error? "
445,"*MOT:","we might have_to syringe again .","pro:sub|we mod|might mod:aux|have_to n|syringe adv|again .","n|syringe","v|syringe","Strange, is this even a real verb?"
450,"*MOT:","she's just getting over one .","pro:sub|she~v:cop|be&3S adv:int|just part|get-PROG prep|over pro:indef|one .","prep|over","adv:loc|over",
452,"*MOT:","she has been taking baby Tylenol .","pro:sub|she aux|have&3S aux|be&PERF part|take-PROG n|baby n:prop|Tylenol .","n|baby","adj|baby",
468,"*MOT:","oh no , she's not here Investigator .","co|oh co|no , pro:sub|she~aux|be&3S neg|not adv:loc|here n:prop|Investigator .","pro:sub|she~aux|be&3S","pro:sub|she~v:cop|be&3S",
478,"*MOT:","hiccough .","n|hiccough .","n|hiccough","on|hiccough",
507,"*INV:","I'm working for Professor Lastname , a professor in the Linguistics Department here while I finish writing .","pro:sub|I~aux|be&1S part|work-PROG prep|for n:prop|Professor n:prop|Lastname , det|a n|professor prep|in det|the n:prop|Linguistics n:prop|Department adv:loc|here conj|while pro:sub|I adj|fin&dn-ISH part|write-PROG .","adj|fin&dn-ISH","v|finish",
512,"*INV:","okay , I'll just put it over here .","co|okay , pro:sub|I~mod|will adv:int|just v|put&ZERO pro|it adv:loc|over adv:loc|here .","adv:loc|over","prep|over",
515,"*INV:","what's she studying ?","pro:wh|what~aux|be&3S pro:sub|she n:gerund|study-PROG ?","n:gerund|study-PROG","part|study-PROG",
516,"*MOT:","she thinks she's gonna go into teaching English .","pro:sub|she v|think-3S pro:sub|she~aux|be&3S part|go-PROG~inf|to v|go prep|into part|teach-PROG n:prop|English .","part|teach-PROG","n:gerund|teach-PROG",
517,"*MOT:","xxx I'm an English teacher .","unk|xxx pro:sub|I~v:cop|be&1S det|a n:prop|English n|teach&dv-AGT .","n:prop|English","adj|English",
529,"*MOT:","do you think he got hurt ?","mod|do pro|you v|think pro:sub|he v|get&PAST v|hurt&ZERO ?","v|hurt&ZERO","adj|hurt",
531,"*MOT:","oh that must be it .","co|oh rel|that mod|must v:cop|be pro|it .","rel|that","pro:dem|that",
544,"*INV:","no , he's nice and soft .","co|no , pro:sub|he~v:cop|be&3S adj|nice coord|and adv|soft .","adv|soft","adj|soft",
548,"*CHI:","I take it off .","pro:sub|I v|take pro|it adv|off .","adv|off","adv:loc|off",
549,"*MOT:","yeah , take those things off .","co|yeah , v|take det|those n|thing-PL adv|off .","adv|off","adv:loc|off",
551,"*MOT:","what do you like there ?","pro:wh|what mod|do pro|you prep|like adv:loc|there ?","prep|like","v|like",
569,"*INV:","I guess cause they progress so fast , that they say +""/.","pro:sub|I v|guess n|cause pro:sub|they v|progress adv:int|so adj|fast , rel|that pro:sub|they v|say +""/.","n|cause","conj|cause",
590,"*INV:","I have_to get ready to go home now .","pro:sub|I mod:aux|have_to v|get v|ready inf|to v|go n|home adv|now .","v|ready","adj|ready",
590,"*INV:","I have_to get ready to go home now .","pro:sub|I mod:aux|have_to v|get v|ready inf|to v|go n|home adv|now .","v|ready","adj|ready",
