      1 <langs
      1 <single
      2 <r
      5 <overlap
      7 <quotation
     44 <?xml
     44 <CHAT
     44 <Participants
     49 <mpfx
     63 <error
     71 <action
    128 <pause
    137 <comment
    149 <participant
    196 <happening
    240 <replacement
    252 <k
    267 <e
    349 <wk
    361 <p
    362 <linker
    448 <a
    526 <freecode
    529 <shortening
    656 <postcode
    716 <mwc
   1670 <ga
   1916 <g
  12222 <mor-post
  30048 <mk
  40661 <mt
  43882 <t
  43882 <u
  63871 <s
 167347 <w
 174155 <mw
 174155 <stem
 174871 <c
 174871 <pos
 201863 <mor
 214059 <gra
